{
  "en": {
    "previewText": "A five minute job that might earn you more bookings!",
    "logoText": "Marketplace by Rentalcars.com",
    "salutationText": "Hello,",
    "introductionText1": "As you know, away from airports, shorter duration rentals are the most common bookings from customers.  Staying competitive for rentals of less than one week is crucial when trying to win the chance to serve the customer and is a sure fire way of making more bookings.",
    "introductionText2": "In Marketplace all pricing is based on your 1 Day Rental Price.  Today you probably offer a slightly lower rate for rentals of more than one day.  Many rental companies offer a <strong>\"7 Day Rate\"</strong> or a <strong>\"14 Day Rate\"</strong>.  It's easy to do this in Marketplace.  If you haven't done this already, you may be missing out on bookings because you're pricing high in comparison to others.",
    "introductionText3": "However, we recommend that in order to win bookings of less than 7 days, it's worth having more than one price point.  <strong>2-3 day rentals are very common.</strong>  This is why many (non-airport) rental companies enjoy success when they adopt prices based on the following tiers:",
    "bpoint1": "2-3 days ",
    "bpoint2": "4-6 days ",
    "bpoint3": "7 days ",
    "bpoint4": "8-14 days",
    "introductionText5": "It's easy to do this in Marketplace.  Try it for yourself.  Honestly, it won't take you more than 5 minutes!",
    "buttonTitle": "Set your discounts now",
    "buttonText": "Set your discounts now",
    "helpTitle": "Still not sure what to do?",
    "helpText": "For more information on setting your discounts, view the help section below.",
    "buttonTitle2": "View discount help",
    "buttonText2": "View discount help"
  }
}
