{		
	"en": {	
		"previewText":"There maybe trouble ahead","logoText":"Marketplace by Rentalcars.com","salutationText":"Hello,","titleText":"There maybe trouble ahead","subtitleText":"-","introductionText1":"It looks like the allocation and/or pricing for some or all of your cars is expiring soon.","introductionText2":"<strong>What this means:</strong> If the pricing is missing or there is no allocation on Marketplace, your cars won’t appear on |Rentalcars.com| search results and customers won’t be able to book them.","introductionText3":"<strong>What you need to do:</strong> Update your pricing and allocation as far in the future as you can. You can set prices for up to 12 months ahead. And you can update them as often as you want.","introductionText4":"With Marketplace, you set your own prices and allocation. Remember to keep this information updated, so you don’t miss out on any bookings.","introductionText5":"If you’re not sure how to do this, have a look at how to |Update your prices|.","introductionText6":"Or you can read our article on how to |Change your allocation|.","introductionText7":"If you don’t find the answers you need in our |Help| section, get in touch by hitting the 'Support' button at the bottom right of your Marketplace dashboard. We’ll be happy to assist.","buttonTitle":"Login to update your details","buttonText":"Login to update your details","urchin":"?utm_source=newsletter&utm_medium=email&utm_campaign=updateap_email"
	},	 
	"de": {	
		"previewText":"There maybe trouble ahead","logoText":"Marketplace by Rentalcars.com","salutationText":"Hello,","titleText":"There maybe trouble ahead","subtitleText":"-","introductionText1":"It looks like the allocation and/or pricing for some or all of your cars is expiring soon.","introductionText2":"<strong>What this means:</strong> If the pricing is missing or there is no allocation on Marketplace, your cars won’t appear on |Rentalcars.com| search results and customers won’t be able to book them.","introductionText3":"<strong>What you need to do:</strong> Update your pricing and allocation as far in the future as you can. You can set prices for up to 12 months ahead. And you can update them as often as you want.","introductionText4":"With Marketplace, you set your own prices and allocation. Remember to keep this information updated, so you don’t miss out on any bookings.","introductionText5":"If you’re not sure how to do this, have a look at how to |Update your prices|.","introductionText6":"Or you can read our article on how to |Change your allocation|.","introductionText7":"If you don’t find the answers you need in our |Help| section, get in touch by hitting the 'Support' button at the bottom right of your Marketplace dashboard. We’ll be happy to assist.","buttonTitle":"Login to update your details","buttonText":"Login to update your details","urchin":"?utm_source=newsletter&utm_medium=email&utm_campaign=updateap_email"
	},	
	"fr": {	
		"previewText":"There maybe trouble ahead","logoText":"Marketplace by Rentalcars.com","salutationText":"Hello,","titleText":"There maybe trouble ahead","subtitleText":"-","introductionText1":"It looks like the allocation and/or pricing for some or all of your cars is expiring soon.","introductionText2":"<strong>What this means:</strong> If the pricing is missing or there is no allocation on Marketplace, your cars won’t appear on |Rentalcars.com| search results and customers won’t be able to book them.","introductionText3":"<strong>What you need to do:</strong> Update your pricing and allocation as far in the future as you can. You can set prices for up to 12 months ahead. And you can update them as often as you want.","introductionText4":"With Marketplace, you set your own prices and allocation. Remember to keep this information updated, so you don’t miss out on any bookings.","introductionText5":"If you’re not sure how to do this, have a look at how to |Update your prices|.","introductionText6":"Or you can read our article on how to |Change your allocation|.","introductionText7":"If you don’t find the answers you need in our |Help| section, get in touch by hitting the 'Support' button at the bottom right of your Marketplace dashboard. We’ll be happy to assist.","buttonTitle":"Login to update your details","buttonText":"Login to update your details","urchin":"?utm_source=newsletter&utm_medium=email&utm_campaign=updateap_email"
	},	
	"es": {	
		"previewText":"There maybe trouble ahead","logoText":"Marketplace by Rentalcars.com","salutationText":"Hello,","titleText":"There maybe trouble ahead","subtitleText":"-","introductionText1":"It looks like the allocation and/or pricing for some or all of your cars is expiring soon.","introductionText2":"<strong>What this means:</strong> If the pricing is missing or there is no allocation on Marketplace, your cars won’t appear on |Rentalcars.com| search results and customers won’t be able to book them.","introductionText3":"<strong>What you need to do:</strong> Update your pricing and allocation as far in the future as you can. You can set prices for up to 12 months ahead. And you can update them as often as you want.","introductionText4":"With Marketplace, you set your own prices and allocation. Remember to keep this information updated, so you don’t miss out on any bookings.","introductionText5":"If you’re not sure how to do this, have a look at how to |Update your prices|.","introductionText6":"Or you can read our article on how to |Change your allocation|.","introductionText7":"If you don’t find the answers you need in our |Help| section, get in touch by hitting the 'Support' button at the bottom right of your Marketplace dashboard. We’ll be happy to assist.","buttonTitle":"Login to update your details","buttonText":"Login to update your details","urchin":"?utm_source=newsletter&utm_medium=email&utm_campaign=updateap_email"
	},	
	"nl": {	
		"previewText":"There maybe trouble ahead","logoText":"Marketplace by Rentalcars.com","salutationText":"Hello,","titleText":"There maybe trouble ahead","subtitleText":"-","introductionText1":"It looks like the allocation and/or pricing for some or all of your cars is expiring soon.","introductionText2":"<strong>What this means:</strong> If the pricing is missing or there is no allocation on Marketplace, your cars won’t appear on |Rentalcars.com| search results and customers won’t be able to book them.","introductionText3":"<strong>What you need to do:</strong> Update your pricing and allocation as far in the future as you can. You can set prices for up to 12 months ahead. And you can update them as often as you want.","introductionText4":"With Marketplace, you set your own prices and allocation. Remember to keep this information updated, so you don’t miss out on any bookings.","introductionText5":"If you’re not sure how to do this, have a look at how to |Update your prices|.","introductionText6":"Or you can read our article on how to |Change your allocation|.","introductionText7":"If you don’t find the answers you need in our |Help| section, get in touch by hitting the 'Support' button at the bottom right of your Marketplace dashboard. We’ll be happy to assist.","buttonTitle":"Login to update your details","buttonText":"Login to update your details","urchin":"?utm_source=newsletter&utm_medium=email&utm_campaign=updateap_email"
	},	
	"gr": {	
		"previewText":"There maybe trouble ahead","logoText":"Marketplace by Rentalcars.com","salutationText":"Hello,","titleText":"There maybe trouble ahead","subtitleText":"-","introductionText1":"It looks like the allocation and/or pricing for some or all of your cars is expiring soon.","introductionText2":"<strong>What this means:</strong> If the pricing is missing or there is no allocation on Marketplace, your cars won’t appear on |Rentalcars.com| search results and customers won’t be able to book them.","introductionText3":"<strong>What you need to do:</strong> Update your pricing and allocation as far in the future as you can. You can set prices for up to 12 months ahead. And you can update them as often as you want.","introductionText4":"With Marketplace, you set your own prices and allocation. Remember to keep this information updated, so you don’t miss out on any bookings.","introductionText5":"If you’re not sure how to do this, have a look at how to |Update your prices|.","introductionText6":"Or you can read our article on how to |Change your allocation|.","introductionText7":"If you don’t find the answers you need in our |Help| section, get in touch by hitting the 'Support' button at the bottom right of your Marketplace dashboard. We’ll be happy to assist.","buttonTitle":"Login to update your details","buttonText":"Login to update your details","urchin":"?utm_source=newsletter&utm_medium=email&utm_campaign=updateap_email"
	},	
	"se": {	
		"previewText":"There maybe trouble ahead","logoText":"Marketplace by Rentalcars.com","salutationText":"Hello,","titleText":"There maybe trouble ahead","subtitleText":"-","introductionText1":"It looks like the allocation and/or pricing for some or all of your cars is expiring soon.","introductionText2":"<strong>What this means:</strong> If the pricing is missing or there is no allocation on Marketplace, your cars won’t appear on |Rentalcars.com| search results and customers won’t be able to book them.","introductionText3":"<strong>What you need to do:</strong> Update your pricing and allocation as far in the future as you can. You can set prices for up to 12 months ahead. And you can update them as often as you want.","introductionText4":"With Marketplace, you set your own prices and allocation. Remember to keep this information updated, so you don’t miss out on any bookings.","introductionText5":"If you’re not sure how to do this, have a look at how to |Update your prices|.","introductionText6":"Or you can read our article on how to |Change your allocation|.","introductionText7":"If you don’t find the answers you need in our |Help| section, get in touch by hitting the 'Support' button at the bottom right of your Marketplace dashboard. We’ll be happy to assist.","buttonTitle":"Login to update your details","buttonText":"Login to update your details","urchin":"?utm_source=newsletter&utm_medium=email&utm_campaign=updateap_email"
	},	
	"ru": {	
		"previewText":"There maybe trouble ahead","logoText":"Marketplace by Rentalcars.com","salutationText":"Hello,","titleText":"There maybe trouble ahead","subtitleText":"-","introductionText1":"It looks like the allocation and/or pricing for some or all of your cars is expiring soon.","introductionText2":"<strong>What this means:</strong> If the pricing is missing or there is no allocation on Marketplace, your cars won’t appear on |Rentalcars.com| search results and customers won’t be able to book them.","introductionText3":"<strong>What you need to do:</strong> Update your pricing and allocation as far in the future as you can. You can set prices for up to 12 months ahead. And you can update them as often as you want.","introductionText4":"With Marketplace, you set your own prices and allocation. Remember to keep this information updated, so you don’t miss out on any bookings.","introductionText5":"If you’re not sure how to do this, have a look at how to |Update your prices|.","introductionText6":"Or you can read our article on how to |Change your allocation|.","introductionText7":"If you don’t find the answers you need in our |Help| section, get in touch by hitting the 'Support' button at the bottom right of your Marketplace dashboard. We’ll be happy to assist.","buttonTitle":"Login to update your details","buttonText":"Login to update your details","urchin":"?utm_source=newsletter&utm_medium=email&utm_campaign=updateap_email"
	},	
	"it": {	
		"previewText":"There maybe trouble ahead","logoText":"Marketplace by Rentalcars.com","salutationText":"Hello,","titleText":"There maybe trouble ahead","subtitleText":"-","introductionText1":"It looks like the allocation and/or pricing for some or all of your cars is expiring soon.","introductionText2":"<strong>What this means:</strong> If the pricing is missing or there is no allocation on Marketplace, your cars won’t appear on |Rentalcars.com| search results and customers won’t be able to book them.","introductionText3":"<strong>What you need to do:</strong> Update your pricing and allocation as far in the future as you can. You can set prices for up to 12 months ahead. And you can update them as often as you want.","introductionText4":"With Marketplace, you set your own prices and allocation. Remember to keep this information updated, so you don’t miss out on any bookings.","introductionText5":"If you’re not sure how to do this, have a look at how to |Update your prices|.","introductionText6":"Or you can read our article on how to |Change your allocation|.","introductionText7":"If you don’t find the answers you need in our |Help| section, get in touch by hitting the 'Support' button at the bottom right of your Marketplace dashboard. We’ll be happy to assist.","buttonTitle":"Login to update your details","buttonText":"Login to update your details","urchin":"?utm_source=newsletter&utm_medium=email&utm_campaign=updateap_email"
	},	
	"ar": {	
		"previewText":"There maybe trouble ahead","logoText":"Marketplace by Rentalcars.com","salutationText":"Hello,","titleText":"There maybe trouble ahead","subtitleText":"-","introductionText1":"It looks like the allocation and/or pricing for some or all of your cars is expiring soon.","introductionText2":"<strong>What this means:</strong> If the pricing is missing or there is no allocation on Marketplace, your cars won’t appear on |Rentalcars.com| search results and customers won’t be able to book them.","introductionText3":"<strong>What you need to do:</strong> Update your pricing and allocation as far in the future as you can. You can set prices for up to 12 months ahead. And you can update them as often as you want.","introductionText4":"With Marketplace, you set your own prices and allocation. Remember to keep this information updated, so you don’t miss out on any bookings.","introductionText5":"If you’re not sure how to do this, have a look at how to |Update your prices|.","introductionText6":"Or you can read our article on how to |Change your allocation|.","introductionText7":"If you don’t find the answers you need in our |Help| section, get in touch by hitting the 'Support' button at the bottom right of your Marketplace dashboard. We’ll be happy to assist.","buttonTitle":"Login to update your details","buttonText":"Login to update your details","urchin":"?utm_source=newsletter&utm_medium=email&utm_campaign=updateap_email"
	},	
	"br": {	
		"previewText":"There maybe trouble ahead","logoText":"Marketplace by Rentalcars.com","salutationText":"Hello,","titleText":"There maybe trouble ahead","subtitleText":"-","introductionText1":"It looks like the allocation and/or pricing for some or all of your cars is expiring soon.","introductionText2":"<strong>What this means:</strong> If the pricing is missing or there is no allocation on Marketplace, your cars won’t appear on |Rentalcars.com| search results and customers won’t be able to book them.","introductionText3":"<strong>What you need to do:</strong> Update your pricing and allocation as far in the future as you can. You can set prices for up to 12 months ahead. And you can update them as often as you want.","introductionText4":"With Marketplace, you set your own prices and allocation. Remember to keep this information updated, so you don’t miss out on any bookings.","introductionText5":"If you’re not sure how to do this, have a look at how to |Update your prices|.","introductionText6":"Or you can read our article on how to |Change your allocation|.","introductionText7":"If you don’t find the answers you need in our |Help| section, get in touch by hitting the 'Support' button at the bottom right of your Marketplace dashboard. We’ll be happy to assist.","buttonTitle":"Login to update your details","buttonText":"Login to update your details","urchin":"?utm_source=newsletter&utm_medium=email&utm_campaign=updateap_email"
	},	
	"au": {	
		"previewText":"There maybe trouble ahead","logoText":"Marketplace by Rentalcars.com","salutationText":"Hello,","titleText":"There maybe trouble ahead","subtitleText":"-","introductionText1":"It looks like the allocation and/or pricing for some or all of your cars is expiring soon.","introductionText2":"<strong>What this means:</strong> If the pricing is missing or there is no allocation on Marketplace, your cars won’t appear on |Rentalcars.com| search results and customers won’t be able to book them.","introductionText3":"<strong>What you need to do:</strong> Update your pricing and allocation as far in the future as you can. You can set prices for up to 12 months ahead. And you can update them as often as you want.","introductionText4":"With Marketplace, you set your own prices and allocation. Remember to keep this information updated, so you don’t miss out on any bookings.","introductionText5":"If you’re not sure how to do this, have a look at how to |Update your prices|.","introductionText6":"Or you can read our article on how to |Change your allocation|.","introductionText7":"If you don’t find the answers you need in our |Help| section, get in touch by hitting the 'Support' button at the bottom right of your Marketplace dashboard. We’ll be happy to assist.","buttonTitle":"Login to update your details","buttonText":"Login to update your details","urchin":"?utm_source=newsletter&utm_medium=email&utm_campaign=updateap_email"
	},	
	"nz": {	
		"previewText":"There maybe trouble ahead","logoText":"Marketplace by Rentalcars.com","salutationText":"Hello,","titleText":"There maybe trouble ahead","subtitleText":"-","introductionText1":"It looks like the allocation and/or pricing for some or all of your cars is expiring soon.","introductionText2":"<strong>What this means:</strong> If the pricing is missing or there is no allocation on Marketplace, your cars won’t appear on |Rentalcars.com| search results and customers won’t be able to book them.","introductionText3":"<strong>What you need to do:</strong> Update your pricing and allocation as far in the future as you can. You can set prices for up to 12 months ahead. And you can update them as often as you want.","introductionText4":"With Marketplace, you set your own prices and allocation. Remember to keep this information updated, so you don’t miss out on any bookings.","introductionText5":"If you’re not sure how to do this, have a look at how to |Update your prices|.","introductionText6":"Or you can read our article on how to |Change your allocation|.","introductionText7":"If you don’t find the answers you need in our |Help| section, get in touch by hitting the 'Support' button at the bottom right of your Marketplace dashboard. We’ll be happy to assist.","buttonTitle":"Login to update your details","buttonText":"Login to update your details","urchin":"?utm_source=newsletter&utm_medium=email&utm_campaign=updateap_email"
	},	
	"pt": {	
		"previewText":"There maybe trouble ahead","logoText":"Marketplace by Rentalcars.com","salutationText":"Hello,","titleText":"There maybe trouble ahead","subtitleText":"-","introductionText1":"It looks like the allocation and/or pricing for some or all of your cars is expiring soon.","introductionText2":"<strong>What this means:</strong> If the pricing is missing or there is no allocation on Marketplace, your cars won’t appear on |Rentalcars.com| search results and customers won’t be able to book them.","introductionText3":"<strong>What you need to do:</strong> Update your pricing and allocation as far in the future as you can. You can set prices for up to 12 months ahead. And you can update them as often as you want.","introductionText4":"With Marketplace, you set your own prices and allocation. Remember to keep this information updated, so you don’t miss out on any bookings.","introductionText5":"If you’re not sure how to do this, have a look at how to |Update your prices|.","introductionText6":"Or you can read our article on how to |Change your allocation|.","introductionText7":"If you don’t find the answers you need in our |Help| section, get in touch by hitting the 'Support' button at the bottom right of your Marketplace dashboard. We’ll be happy to assist.","buttonTitle":"Login to update your details","buttonText":"Login to update your details","urchin":"?utm_source=newsletter&utm_medium=email&utm_campaign=updateap_email"
	}	
}