{   
  "en": { 
    "previewText":"Thank you for all the information so far.","salutationText":"Hi there,","titleText":"Amazing... now for the legal stuff","subtitleText":"While we check everything is ok, upload your documents.","introductionText1":"Thanks for telling us about your company, locations and fleet.  We're just checking over everything to make sure it all looks good.","introductionText2":"While that's happening you'll see a request on your Marketplace dashboard to send us a few <b>documents</b> - it's the important legal stuff. Don't worry, these are simple background checks to verify the businesses working with us are reputable rental businesses.","introductionText3":"You'll also see from your dashboard that now is a good time to fine-tune your pricing.   |Take a look|.","introductionText4":"We strongly recommend you get to know how |'Length of Rent'| discounts work and how to set them up.  The most successful rental businesses on Marketplace make full use.  Hint hint!","introductionText5":"Any problems, just get in touch.","linkTitle1":"Fine tune your pricing","linkHref1":"https://marketplace.rentalcars.com/#/pricing","linkTitle1":"View help on Length of Keep Discounts","linkHref1":"https://secure.rentalcars.com/marketplace/en/help/pricing/how-do-i-add-length-of-rental-discounts/","buttonTitle":"Upload your documents.","buttonText":"Upload documents","urchin":"?utm_source=newsletter&utm_medium=email&utm_campaign=hybrid_dashboard"
  },   
  "de": { 
    "previewText":"","salutationText":"","titleText":"","subtitleText":"","introductionText1":"","introductionText2":"","introductionText3":"","linkTitle1":"","linkHref1":"","linkTitle1":"","buttonTitle":"","buttonText":"","urchin":""
  },  
  "fr": { 
    "previewText":"","salutationText":"","titleText":"","subtitleText":"","introductionText1":"","introductionText2":"","introductionText3":"","linkTitle1":"","linkHref1":"","linkTitle1":"","buttonTitle":"","buttonText":"","urchin":""
  },  
  "es": { 
    "previewText":"","salutationText":"","titleText":"","subtitleText":"","introductionText1":"","introductionText2":"","introductionText3":"","linkTitle1":"","linkHref1":"","linkTitle1":"","buttonTitle":"","buttonText":"","urchin":""
  },  
  "nl": { 
    "previewText":"","salutationText":"","titleText":"","subtitleText":"","introductionText1":"","introductionText2":"","introductionText3":"","linkTitle1":"","linkHref1":"","linkTitle1":"","buttonTitle":"","buttonText":"","urchin":""
  },  
  "gr": { 
    "previewText":"","salutationText":"","titleText":"","subtitleText":"","introductionText1":"","introductionText2":"","introductionText3":"","linkTitle1":"","linkHref1":"","linkTitle1":"","buttonTitle":"","buttonText":"","urchin":""
  },  
  "se": { 
    "previewText":"","salutationText":"","titleText":"","subtitleText":"","introductionText1":"","introductionText2":"","introductionText3":"","linkTitle1":"","linkHref1":"","linkTitle1":"","buttonTitle":"","buttonText":"","urchin":""
  },  
  "ru": { 
    "previewText":"","salutationText":"","titleText":"","subtitleText":"","introductionText1":"","introductionText2":"","introductionText3":"","linkTitle1":"","linkHref1":"","linkTitle1":"","buttonTitle":"","buttonText":"","urchin":""
  },  
  "it": { 
    "previewText":"","salutationText":"","titleText":"","subtitleText":"","introductionText1":"","introductionText2":"","introductionText3":"","linkTitle1":"","linkHref1":"","linkTitle1":"","buttonTitle":"","buttonText":"","urchin":""
  },  
  "ar": { 
    "previewText":"","salutationText":"","titleText":"","subtitleText":"","introductionText1":"","introductionText2":"","introductionText3":"","linkTitle1":"","linkHref1":"","linkTitle1":"","buttonTitle":"","buttonText":"","urchin":""
  },  
  "br": { 
    "previewText":"","salutationText":"","titleText":"","subtitleText":"","introductionText1":"","introductionText2":"","introductionText3":"","linkTitle1":"","linkHref1":"","linkTitle1":"","buttonTitle":"","buttonText":"","urchin":""
  },  
  "au": { 
    "previewText":"","salutationText":"","titleText":"","subtitleText":"","introductionText1":"","introductionText2":"","introductionText3":"","linkTitle1":"","linkHref1":"","linkTitle1":"","buttonTitle":"","buttonText":"","urchin":""
  },  
  "nz": { 
    "previewText":"","salutationText":"","titleText":"","subtitleText":"","introductionText1":"","introductionText2":"","introductionText3":"","linkTitle1":"","linkHref1":"","linkTitle1":"","buttonTitle":"","buttonText":"","urchin":""
  },  
  "pt": { 
    "previewText":"","salutationText":"","titleText":"","subtitleText":"","introductionText1":"","introductionText2":"","introductionText3":"","linkTitle1":"","linkHref1":"","linkTitle1":"","buttonTitle":"","buttonText":"","urchin":""
  } 
}