{		
	"en": {	
		"previewText":"Boost your bookings with Marketplace by Rentalcars.com","logoText":"Marketplace by Rentalcars.com","salutationText":"Hi there,","titleText":"Boost your bookings with Marketplace by |Rentalcars.com|","subtitleText":"-","introductionText1":"We are contacting you as we understand that you have previously shown an interest in becoming a supplier on the |Rentalcars.com| website.","introductionText2":"We would like to introduce you to Marketplace by |Rentalcars.com|. We’ve built this platform specifically for suppliers such as yourself to work with us.","introductionText3":"We are now live in your country and welcoming suppliers to join us and we wanted to open this opportunity to you.","introductionText4":"Why join Marketplace?","introductionText5":"Marketplace gives you massive online visibility and complete control of your offering. It’s that simple.","introductionText6":"Use Marketplace to put your cars on |Rentalcars.com|. You set your own prices, allocation and policies then reach out to millions of potential customers that visit Rentalcars.com each year.","introductionText7":"It’s a great way to increase fleet utilisation and really make the most of your cars.","introductionText8":"Click the ‘Check your demand now!’ button below to see the search results in your area and to find out if your locations can be added to the |Rentalcars.com| website.","introductionText9":"All information on how the Marketplace platform works and what it can do for you can also be found |here|.","introductionText10":"If you have any queries at all, we would be happy to assist.","introductionText11":"We look forward to welcoming you onboard!","buttonTitle":"Check your demand now!","buttonText":"Check your demand now!","urchin":"?utm_source=newsletter&utm_medium=email&utm_campaign=wwuRZ_email"
	},	 
	"de": {	
		"previewText":"Boost your bookings with Marketplace by Rentalcars.com","logoText":"Marketplace by Rentalcars.com","salutationText":"Hi there,","titleText":"Boost your bookings with Marketplace by |Rentalcars.com|","subtitleText":"-","introductionText1":"We are contacting you as we understand that you have previously shown an interest in becoming a supplier on the |Rentalcars.com| website.","introductionText2":"We would like to introduce you to Marketplace by |Rentalcars.com|. We’ve built this platform specifically for suppliers such as yourself to work with us.","introductionText3":"We are now live in your country and welcoming suppliers to join us and we wanted to open this opportunity to you.","introductionText4":"Why join Marketplace?","introductionText5":"Marketplace gives you massive online visibility and complete control of your offering. It’s that simple.","introductionText6":"Use Marketplace to put your cars on |Rentalcars.com|. You set your own prices, allocation and policies then reach out to millions of potential customers that visit Rentalcars.com each year.","introductionText7":"It’s a great way to increase fleet utilisation and really make the most of your cars.","introductionText8":"Click the ‘Check your demand now!’ button below to see the search results in your area and to find out if your locations can be added to the |Rentalcars.com| website.","introductionText9":"All information on how the Marketplace platform works and what it can do for you can also be found |here|.","introductionText10":"If you have any queries at all, we would be happy to assist.","introductionText11":"We look forward to welcoming you onboard!","buttonTitle":"Check your demand now!","buttonText":"Check your demand now!","urchin":"?utm_source=newsletter&utm_medium=email&utm_campaign=wwuRZ_email"
	},	
	"fr": {	
		"previewText":"Boost your bookings with Marketplace by Rentalcars.com","logoText":"Marketplace by Rentalcars.com","salutationText":"Hi there,","titleText":"Boost your bookings with Marketplace by |Rentalcars.com|","subtitleText":"-","introductionText1":"We are contacting you as we understand that you have previously shown an interest in becoming a supplier on the |Rentalcars.com| website.","introductionText2":"We would like to introduce you to Marketplace by |Rentalcars.com|. We’ve built this platform specifically for suppliers such as yourself to work with us.","introductionText3":"We are now live in your country and welcoming suppliers to join us and we wanted to open this opportunity to you.","introductionText4":"Why join Marketplace?","introductionText5":"Marketplace gives you massive online visibility and complete control of your offering. It’s that simple.","introductionText6":"Use Marketplace to put your cars on |Rentalcars.com|. You set your own prices, allocation and policies then reach out to millions of potential customers that visit Rentalcars.com each year.","introductionText7":"It’s a great way to increase fleet utilisation and really make the most of your cars.","introductionText8":"Click the ‘Check your demand now!’ button below to see the search results in your area and to find out if your locations can be added to the |Rentalcars.com| website.","introductionText9":"All information on how the Marketplace platform works and what it can do for you can also be found |here|.","introductionText10":"If you have any queries at all, we would be happy to assist.","introductionText11":"We look forward to welcoming you onboard!","buttonTitle":"Check your demand now!","buttonText":"Check your demand now!","urchin":"?utm_source=newsletter&utm_medium=email&utm_campaign=wwuRZ_email"
	},	
	"es": {	
		"previewText":"Boost your bookings with Marketplace by Rentalcars.com","logoText":"Marketplace by Rentalcars.com","salutationText":"Hi there,","titleText":"Boost your bookings with Marketplace by |Rentalcars.com|","subtitleText":"-","introductionText1":"We are contacting you as we understand that you have previously shown an interest in becoming a supplier on the |Rentalcars.com| website.","introductionText2":"We would like to introduce you to Marketplace by |Rentalcars.com|. We’ve built this platform specifically for suppliers such as yourself to work with us.","introductionText3":"We are now live in your country and welcoming suppliers to join us and we wanted to open this opportunity to you.","introductionText4":"Why join Marketplace?","introductionText5":"Marketplace gives you massive online visibility and complete control of your offering. It’s that simple.","introductionText6":"Use Marketplace to put your cars on |Rentalcars.com|. You set your own prices, allocation and policies then reach out to millions of potential customers that visit Rentalcars.com each year.","introductionText7":"It’s a great way to increase fleet utilisation and really make the most of your cars.","introductionText8":"Click the ‘Check your demand now!’ button below to see the search results in your area and to find out if your locations can be added to the |Rentalcars.com| website.","introductionText9":"All information on how the Marketplace platform works and what it can do for you can also be found |here|.","introductionText10":"If you have any queries at all, we would be happy to assist.","introductionText11":"We look forward to welcoming you onboard!","buttonTitle":"Check your demand now!","buttonText":"Check your demand now!","urchin":"?utm_source=newsletter&utm_medium=email&utm_campaign=wwuRZ_email"
	},	
	"nl": {	
		"previewText":"Boost your bookings with Marketplace by Rentalcars.com","logoText":"Marketplace by Rentalcars.com","salutationText":"Hi there,","titleText":"Boost your bookings with Marketplace by |Rentalcars.com|","subtitleText":"-","introductionText1":"We are contacting you as we understand that you have previously shown an interest in becoming a supplier on the |Rentalcars.com| website.","introductionText2":"We would like to introduce you to Marketplace by |Rentalcars.com|. We’ve built this platform specifically for suppliers such as yourself to work with us.","introductionText3":"We are now live in your country and welcoming suppliers to join us and we wanted to open this opportunity to you.","introductionText4":"Why join Marketplace?","introductionText5":"Marketplace gives you massive online visibility and complete control of your offering. It’s that simple.","introductionText6":"Use Marketplace to put your cars on |Rentalcars.com|. You set your own prices, allocation and policies then reach out to millions of potential customers that visit Rentalcars.com each year.","introductionText7":"It’s a great way to increase fleet utilisation and really make the most of your cars.","introductionText8":"Click the ‘Check your demand now!’ button below to see the search results in your area and to find out if your locations can be added to the |Rentalcars.com| website.","introductionText9":"All information on how the Marketplace platform works and what it can do for you can also be found |here|.","introductionText10":"If you have any queries at all, we would be happy to assist.","introductionText11":"We look forward to welcoming you onboard!","buttonTitle":"Check your demand now!","buttonText":"Check your demand now!","urchin":"?utm_source=newsletter&utm_medium=email&utm_campaign=wwuRZ_email"
	},	
	"gr": {	
		"previewText":"Boost your bookings with Marketplace by Rentalcars.com","logoText":"Marketplace by Rentalcars.com","salutationText":"Hi there,","titleText":"Boost your bookings with Marketplace by |Rentalcars.com|","subtitleText":"-","introductionText1":"We are contacting you as we understand that you have previously shown an interest in becoming a supplier on the |Rentalcars.com| website.","introductionText2":"We would like to introduce you to Marketplace by |Rentalcars.com|. We’ve built this platform specifically for suppliers such as yourself to work with us.","introductionText3":"We are now live in your country and welcoming suppliers to join us and we wanted to open this opportunity to you.","introductionText4":"Why join Marketplace?","introductionText5":"Marketplace gives you massive online visibility and complete control of your offering. It’s that simple.","introductionText6":"Use Marketplace to put your cars on |Rentalcars.com|. You set your own prices, allocation and policies then reach out to millions of potential customers that visit Rentalcars.com each year.","introductionText7":"It’s a great way to increase fleet utilisation and really make the most of your cars.","introductionText8":"Click the ‘Check your demand now!’ button below to see the search results in your area and to find out if your locations can be added to the |Rentalcars.com| website.","introductionText9":"All information on how the Marketplace platform works and what it can do for you can also be found |here|.","introductionText10":"If you have any queries at all, we would be happy to assist.","introductionText11":"We look forward to welcoming you onboard!","buttonTitle":"Check your demand now!","buttonText":"Check your demand now!","urchin":"?utm_source=newsletter&utm_medium=email&utm_campaign=wwuRZ_email"
	},	
	"se": {	
		"previewText":"Boost your bookings with Marketplace by Rentalcars.com","logoText":"Marketplace by Rentalcars.com","salutationText":"Hi there,","titleText":"Boost your bookings with Marketplace by |Rentalcars.com|","subtitleText":"-","introductionText1":"We are contacting you as we understand that you have previously shown an interest in becoming a supplier on the |Rentalcars.com| website.","introductionText2":"We would like to introduce you to Marketplace by |Rentalcars.com|. We’ve built this platform specifically for suppliers such as yourself to work with us.","introductionText3":"We are now live in your country and welcoming suppliers to join us and we wanted to open this opportunity to you.","introductionText4":"Why join Marketplace?","introductionText5":"Marketplace gives you massive online visibility and complete control of your offering. It’s that simple.","introductionText6":"Use Marketplace to put your cars on |Rentalcars.com|. You set your own prices, allocation and policies then reach out to millions of potential customers that visit Rentalcars.com each year.","introductionText7":"It’s a great way to increase fleet utilisation and really make the most of your cars.","introductionText8":"Click the ‘Check your demand now!’ button below to see the search results in your area and to find out if your locations can be added to the |Rentalcars.com| website.","introductionText9":"All information on how the Marketplace platform works and what it can do for you can also be found |here|.","introductionText10":"If you have any queries at all, we would be happy to assist.","introductionText11":"We look forward to welcoming you onboard!","buttonTitle":"Check your demand now!","buttonText":"Check your demand now!","urchin":"?utm_source=newsletter&utm_medium=email&utm_campaign=wwuRZ_email"
	},	
	"ru": {	
		"previewText":"Boost your bookings with Marketplace by Rentalcars.com","logoText":"Marketplace by Rentalcars.com","salutationText":"Hi there,","titleText":"Boost your bookings with Marketplace by |Rentalcars.com|","subtitleText":"-","introductionText1":"We are contacting you as we understand that you have previously shown an interest in becoming a supplier on the |Rentalcars.com| website.","introductionText2":"We would like to introduce you to Marketplace by |Rentalcars.com|. We’ve built this platform specifically for suppliers such as yourself to work with us.","introductionText3":"We are now live in your country and welcoming suppliers to join us and we wanted to open this opportunity to you.","introductionText4":"Why join Marketplace?","introductionText5":"Marketplace gives you massive online visibility and complete control of your offering. It’s that simple.","introductionText6":"Use Marketplace to put your cars on |Rentalcars.com|. You set your own prices, allocation and policies then reach out to millions of potential customers that visit Rentalcars.com each year.","introductionText7":"It’s a great way to increase fleet utilisation and really make the most of your cars.","introductionText8":"Click the ‘Check your demand now!’ button below to see the search results in your area and to find out if your locations can be added to the |Rentalcars.com| website.","introductionText9":"All information on how the Marketplace platform works and what it can do for you can also be found |here|.","introductionText10":"If you have any queries at all, we would be happy to assist.","introductionText11":"We look forward to welcoming you onboard!","buttonTitle":"Check your demand now!","buttonText":"Check your demand now!","urchin":"?utm_source=newsletter&utm_medium=email&utm_campaign=wwuRZ_email"
	},	
	"it": {	
		"previewText":"Boost your bookings with Marketplace by Rentalcars.com","logoText":"Marketplace by Rentalcars.com","salutationText":"Hi there,","titleText":"Boost your bookings with Marketplace by |Rentalcars.com|","subtitleText":"-","introductionText1":"We are contacting you as we understand that you have previously shown an interest in becoming a supplier on the |Rentalcars.com| website.","introductionText2":"We would like to introduce you to Marketplace by |Rentalcars.com|. We’ve built this platform specifically for suppliers such as yourself to work with us.","introductionText3":"We are now live in your country and welcoming suppliers to join us and we wanted to open this opportunity to you.","introductionText4":"Why join Marketplace?","introductionText5":"Marketplace gives you massive online visibility and complete control of your offering. It’s that simple.","introductionText6":"Use Marketplace to put your cars on |Rentalcars.com|. You set your own prices, allocation and policies then reach out to millions of potential customers that visit Rentalcars.com each year.","introductionText7":"It’s a great way to increase fleet utilisation and really make the most of your cars.","introductionText8":"Click the ‘Check your demand now!’ button below to see the search results in your area and to find out if your locations can be added to the |Rentalcars.com| website.","introductionText9":"All information on how the Marketplace platform works and what it can do for you can also be found |here|.","introductionText10":"If you have any queries at all, we would be happy to assist.","introductionText11":"We look forward to welcoming you onboard!","buttonTitle":"Check your demand now!","buttonText":"Check your demand now!","urchin":"?utm_source=newsletter&utm_medium=email&utm_campaign=wwuRZ_email"
	},	
	"ar": {	
		"previewText":"Boost your bookings with Marketplace by Rentalcars.com","logoText":"Marketplace by Rentalcars.com","salutationText":"Hi there,","titleText":"Boost your bookings with Marketplace by |Rentalcars.com|","subtitleText":"-","introductionText1":"We are contacting you as we understand that you have previously shown an interest in becoming a supplier on the |Rentalcars.com| website.","introductionText2":"We would like to introduce you to Marketplace by |Rentalcars.com|. We’ve built this platform specifically for suppliers such as yourself to work with us.","introductionText3":"We are now live in your country and welcoming suppliers to join us and we wanted to open this opportunity to you.","introductionText4":"Why join Marketplace?","introductionText5":"Marketplace gives you massive online visibility and complete control of your offering. It’s that simple.","introductionText6":"Use Marketplace to put your cars on |Rentalcars.com|. You set your own prices, allocation and policies then reach out to millions of potential customers that visit Rentalcars.com each year.","introductionText7":"It’s a great way to increase fleet utilisation and really make the most of your cars.","introductionText8":"Click the ‘Check your demand now!’ button below to see the search results in your area and to find out if your locations can be added to the |Rentalcars.com| website.","introductionText9":"All information on how the Marketplace platform works and what it can do for you can also be found |here|.","introductionText10":"If you have any queries at all, we would be happy to assist.","introductionText11":"We look forward to welcoming you onboard!","buttonTitle":"Check your demand now!","buttonText":"Check your demand now!","urchin":"?utm_source=newsletter&utm_medium=email&utm_campaign=wwuRZ_email"
	},	
	"br": {	
		"previewText":"Boost your bookings with Marketplace by Rentalcars.com","logoText":"Marketplace by Rentalcars.com","salutationText":"Hi there,","titleText":"Boost your bookings with Marketplace by |Rentalcars.com|","subtitleText":"-","introductionText1":"We are contacting you as we understand that you have previously shown an interest in becoming a supplier on the |Rentalcars.com| website.","introductionText2":"We would like to introduce you to Marketplace by |Rentalcars.com|. We’ve built this platform specifically for suppliers such as yourself to work with us.","introductionText3":"We are now live in your country and welcoming suppliers to join us and we wanted to open this opportunity to you.","introductionText4":"Why join Marketplace?","introductionText5":"Marketplace gives you massive online visibility and complete control of your offering. It’s that simple.","introductionText6":"Use Marketplace to put your cars on |Rentalcars.com|. You set your own prices, allocation and policies then reach out to millions of potential customers that visit Rentalcars.com each year.","introductionText7":"It’s a great way to increase fleet utilisation and really make the most of your cars.","introductionText8":"Click the ‘Check your demand now!’ button below to see the search results in your area and to find out if your locations can be added to the |Rentalcars.com| website.","introductionText9":"All information on how the Marketplace platform works and what it can do for you can also be found |here|.","introductionText10":"If you have any queries at all, we would be happy to assist.","introductionText11":"We look forward to welcoming you onboard!","buttonTitle":"Check your demand now!","buttonText":"Check your demand now!","urchin":"?utm_source=newsletter&utm_medium=email&utm_campaign=wwuRZ_email"
	},	
	"au": {	
		"previewText":"Boost your bookings with Marketplace by Rentalcars.com","logoText":"Marketplace by Rentalcars.com","salutationText":"Hi there,","titleText":"Boost your bookings with Marketplace by |Rentalcars.com|","subtitleText":"-","introductionText1":"We are contacting you as we understand that you have previously shown an interest in becoming a supplier on the |Rentalcars.com| website.","introductionText2":"We would like to introduce you to Marketplace by |Rentalcars.com|. We’ve built this platform specifically for suppliers such as yourself to work with us.","introductionText3":"We are now live in your country and welcoming suppliers to join us and we wanted to open this opportunity to you.","introductionText4":"Why join Marketplace?","introductionText5":"Marketplace gives you massive online visibility and complete control of your offering. It’s that simple.","introductionText6":"Use Marketplace to put your cars on |Rentalcars.com|. You set your own prices, allocation and policies then reach out to millions of potential customers that visit Rentalcars.com each year.","introductionText7":"It’s a great way to increase fleet utilisation and really make the most of your cars.","introductionText8":"Click the ‘Check your demand now!’ button below to see the search results in your area and to find out if your locations can be added to the |Rentalcars.com| website.","introductionText9":"All information on how the Marketplace platform works and what it can do for you can also be found |here|.","introductionText10":"If you have any queries at all, we would be happy to assist.","introductionText11":"We look forward to welcoming you onboard!","buttonTitle":"Check your demand now!","buttonText":"Check your demand now!","urchin":"?utm_source=newsletter&utm_medium=email&utm_campaign=wwuRZ_email"
	},	
	"nz": {	
		"previewText":"Boost your bookings with Marketplace by Rentalcars.com","logoText":"Marketplace by Rentalcars.com","salutationText":"Hi there,","titleText":"Boost your bookings with Marketplace by |Rentalcars.com|","subtitleText":"-","introductionText1":"We are contacting you as we understand that you have previously shown an interest in becoming a supplier on the |Rentalcars.com| website.","introductionText2":"We would like to introduce you to Marketplace by |Rentalcars.com|. We’ve built this platform specifically for suppliers such as yourself to work with us.","introductionText3":"We are now live in your country and welcoming suppliers to join us and we wanted to open this opportunity to you.","introductionText4":"Why join Marketplace?","introductionText5":"Marketplace gives you massive online visibility and complete control of your offering. It’s that simple.","introductionText6":"Use Marketplace to put your cars on |Rentalcars.com|. You set your own prices, allocation and policies then reach out to millions of potential customers that visit Rentalcars.com each year.","introductionText7":"It’s a great way to increase fleet utilisation and really make the most of your cars.","introductionText8":"Click the ‘Check your demand now!’ button below to see the search results in your area and to find out if your locations can be added to the |Rentalcars.com| website.","introductionText9":"All information on how the Marketplace platform works and what it can do for you can also be found |here|.","introductionText10":"If you have any queries at all, we would be happy to assist.","introductionText11":"We look forward to welcoming you onboard!","buttonTitle":"Check your demand now!","buttonText":"Check your demand now!","urchin":"?utm_source=newsletter&utm_medium=email&utm_campaign=wwuRZ_email"
	},	
	"pt": {	
		"previewText":"Boost your bookings with Marketplace by Rentalcars.com","logoText":"Marketplace by Rentalcars.com","salutationText":"Hi there,","titleText":"Boost your bookings with Marketplace by |Rentalcars.com|","subtitleText":"-","introductionText1":"We are contacting you as we understand that you have previously shown an interest in becoming a supplier on the |Rentalcars.com| website.","introductionText2":"We would like to introduce you to Marketplace by |Rentalcars.com|. We’ve built this platform specifically for suppliers such as yourself to work with us.","introductionText3":"We are now live in your country and welcoming suppliers to join us and we wanted to open this opportunity to you.","introductionText4":"Why join Marketplace?","introductionText5":"Marketplace gives you massive online visibility and complete control of your offering. It’s that simple.","introductionText6":"Use Marketplace to put your cars on |Rentalcars.com|. You set your own prices, allocation and policies then reach out to millions of potential customers that visit Rentalcars.com each year.","introductionText7":"It’s a great way to increase fleet utilisation and really make the most of your cars.","introductionText8":"Click the ‘Check your demand now!’ button below to see the search results in your area and to find out if your locations can be added to the |Rentalcars.com| website.","introductionText9":"All information on how the Marketplace platform works and what it can do for you can also be found |here|.","introductionText10":"If you have any queries at all, we would be happy to assist.","introductionText11":"We look forward to welcoming you onboard!","buttonTitle":"Check your demand now!","buttonText":"Check your demand now!","urchin":"?utm_source=newsletter&utm_medium=email&utm_campaign=wwuRZ_email"
	}	
}