{   
  "en": { 
    "previewText":"MP booking ref: {{supplierReservationReference}}, RC booking ref: {{rentalcarsReservationReference}}","logoText":"Marketplace by Rentalcars.com","salutationText":"Hi {{salutationCurrentUser}}","titleText":"Reservation amended","subtitleText":"by a Rentalcars.com customer","introductionText1":"You'll need to take note / update your system, especially if extras have been added.","introductionText2":"The Commission Invoice is from us to you in respect of the commission related to your Request for Payment.","buttonTitle":"View Amendments","buttonText":"View Amendments","rdTitle":"Reservation details","rdMPRef":"MP booking ref:","rdRCRef":"RC booking ref:","rdPickDate":"Pick up date:","rdPickLoc":"Pick up location:","rdDropDate":"Drop off date:","rdDropLoc":"Drop off location:","cdTitle":"Customer details","cdName":"Customer name: ","cdDOB":"DOB:","cdAge":"Age:","cdEmail":"Email:","cdPhone":"Phone:","cdMobile":"Mobile:","cdAddress":"Address:","cdAirline":"Airline & flight no.:","cdPassport":"Passport info","cdLicence":"Drivers license info:","buttonTitle2":"Manage Reservations","buttonText2":"Manage Reservations"
  },   
  "de": { 
    "previewText":"MP Buchungsref: {{supplierReservationReference}}, RC Buchungsref: {{rentalcarsReservationReference}}","logoText":"Marketplace by Rentalcars.com","salutationText":"Hallo {{salutationCurrentUser}}","titleText":"Buchung wurde geändert","subtitleText":"von einem Rentalcars.com Kunden","introductionText1":"Bitte updaten Sie Ihr System, da möglicherweise Extras hinzugefügt worden sind.","introductionText2":"Die Provisionsabrechnung die Sie hiermit von uns erhalten, stellt die Provision für die von Ihnen angeforderte Zahlungsaufforderung an dar.","buttonTitle":"Änderungen einsehen","buttonText":"Änderungen einsehen","rdTitle":"Einzelheiten der Reservierung","rdMPRef":"MP Buchungsref: ","rdRCRef":"RC Buchungsref:","rdPickDate":"Abholdatum: ","rdPickLoc":"Abholstandort:","rdDropDate":"Rückgabedatum:","rdDropLoc":"Rückgabestandort:","cdTitle":"Angaben über den Kunden","cdName":"Name des Kunden:","cdDOB":"Geburtsdatum:","cdAge":"Alter:","cdEmail":"E-Mail:","cdPhone":"Telefon:","cdMobile":"Mobil:","cdAddress":"Adresse:","cdAirline":"Fluggesellschaft u. Flugnr.:","cdPassport":"Reisepass-/Personalausweis-Info:","cdLicence":"Führerschein-Info:","buttonTitle2":"Reservierungen verwalten","buttonText2":"Reservierungen verwalten"
  },  
  "fr": { 
    "previewText":"MP référence de réservation : {{supplierReservationReference}}, RC référence de réservation : {{rentalcarsReservationReference}}","logoText":"Marketplace par Rentalcars.com","salutationText":"Bonjour {{salutationCurrentUser}}","titleText":"Réservation modifiée","subtitleText":"par un client Rentalcars.com","introductionText1":"Vous devrez prendre note de/mettre à jour votre système, surtout si des services additionnels ont été ajoutés.","introductionText2":"Nous vous envoyons une facture relative à la commission dans le cadre de votre demande de paiement.","buttonTitle":"Voir les modifications","buttonText":"Voir les modifications","rdTitle":"Détails de réservation","rdMPRef":"MP référence de réservation :","rdRCRef":"RC référence de réservation : ","rdPickDate":"Date de prise en charge :","rdPickLoc":"Lieu de prise en charge : ","rdDropDate":"Date de restitution :","rdDropLoc":"Lieu de restitution :","cdTitle":"Détails concernant le client","cdName":"Nom du client :","cdDOB":"Date de naissance :","cdAge":"L'age:","cdEmail":"Email :","cdPhone":"Téléphone :","cdMobile":"Mobile :","cdAddress":"Adresse :","cdAirline":"Vol et compagnie aérienne :","cdPassport":"Informations Passeport","cdLicence":"Informations sur le permis du conducteur :","buttonTitle2":"Gérer les réservations","buttonText2":"Gérer les réservations"
  },  
  "es": { 
    "previewText":"Nº de referencia de Marketplace: {{supplierReservationReference}}, Nº de referencia de Rentalcars.com: {{rentalcarsReservationReference}}","logoText":"Marketplace de Rentalcars.com","salutationText":"Hola, {{salutationCurrentUser}}","titleText":"Reserva modificada","subtitleText":"por un cliente de Rentalcars.com","introductionText1":"Deberá apuntar / actualizar su sistema, especialmente si hay extras añadidos.","introductionText2":"La factura de la comisión refleja la comisión relativa a su solicitud de pago.","buttonTitle":"Ver Cambios","buttonText":"Ver Cambios","rdTitle":"Datos de la reserva","rdMPRef":"Nº de referencia de Marketplace:","rdRCRef":"Nº de referencia de Rentalcars.com:","rdPickDate":"Fecha de recogida:","rdPickLoc":"Lugar de recogida:","rdDropDate":"Fecha de devolución:","rdDropLoc":"Oficina de devolución:","cdTitle":"Datos del cliente","cdName":"Nombre del cliente:","cdDOB":"Fecha de nacimiento:","cdAge":"Edad:","cdEmail":"Email:","cdPhone":"Teléfono:","cdMobile":"Móvil:","cdAddress":"Dirección:","cdAirline":"Aerolínea y número de vuelo:","cdPassport":"Datos del pasaporte:","cdLicence":"Datos del carnet de conducir:","buttonTitle2":"Gestionar reservas","buttonText2":"Gestionar reservas"
  },  
  "nl": { 
    "previewText":"MP referentienummer: {{supplierReservationReference}}, RC referentienummer: {{rentalcarsReservationReference}}","logoText":"Marketplace mogelijk gemaakt door Rentalcars.com","salutationText":"Hallo {{salutationCurrentUser}}","titleText":"Reservering gewijzigd","subtitleText":"door een klant van Rentalcars.com","introductionText1":"U dient dit in uw systeem bij te werken, vooral als er extra's zijn toegevoegd.","introductionText2":"De commissiefactuur is van ons naar u, en beschrijft de commissie met betrekking tot uw Betalingsverzoek.","buttonTitle":"Bekijk Wijzigingen","buttonText":"Bekijk Wijzigingen","rdTitle":"Reserveringsgegevens","rdMPRef":"MP referentienummer:","rdRCRef":"RC referentienummer:","rdPickDate":"Ophaaldatum:","rdPickLoc":"Ophaallocatie:","rdDropDate":"Inleverdatum:","rdDropLoc":"Inleverlocatie:","cdTitle":"Klantgegevens","cdName":"Naam klant: ","cdDOB":"Geboortedatum:","cdAge":"Leeftijd:","cdEmail":"E-mail:","cdPhone":"Telefoonnummer:","cdMobile":"Mobiel:","cdAddress":"Adres:","cdAirline":"Vliegmaatschappij & vluchtnr.:","cdPassport":"Paspoortgegevens:","cdLicence":"Rijbewijsgegevens:","buttonTitle2":"Reserveringen beheren","buttonText2":"Reserveringen beheren"
  },  
  "gr": { 
    "previewText":"Αριθμός αναφ. MP: {{supplierReservationReference}}, Αριθμός αναφ. RC: {{rentalcarsReservationReference}}","logoText":"Marketplace από τη Rentalcars.com","salutationText":"Γεια σου {{salutationCurrentUser}}","titleText":"Η κράτηση ακυρώθηκε","subtitleText":"από έναν πελάτη της Rentalcars.com","introductionText1":"Θα πρέπει να σημειώσετε / να ενημερώσετε το σύστημά σας, ειδικά σε περίπτωση που έξτρα εξοπλισμός έχει προστεθεί.","introductionText2":"Το Τιμολόγιο Προμήθειας εκδίδεται από εμάς προς εσάς και αφορά την προμήθεια που σχετίζεται με τη δική σας Αίτηση για Πληρωμή.","buttonTitle":"Προβολή ακύρωσης","buttonText":"Προβολή ακύρωσης","rdTitle":"Στοιχεία κράτησης","rdMPRef":"Αριθμός αναφ. MP:","rdRCRef":"Αριθμός αναφ. RC:","rdPickDate":"Ημερομηνία παραλαβής:","rdPickLoc":"Ημερομηνία παραλαβής:","rdDropDate":"Ημερομηνία παράδοσης:","rdDropLoc":"Τοποθεσία παράδοσης:","cdTitle":"Στοιχεία πελάτη","cdName":"Όνομα πελάτη:","cdDOB":"ΗMΓ:","cdAge":"Ηλικία:","cdEmail":"email:","cdPhone":"Phone:","cdMobile":"Κινητό:","cdAddress":"Διεύθυνση:","cdAirline":"Αεροπορική & Αρ. Πτήσης:","cdPassport":"Στοιχεία διαβατηρίου:","cdLicence":"Στοιχεία διπλώματος οδηγού:","buttonTitle2":"Διαχείριση κρατήσεων","buttonText2":"Διαχείριση κρατήσεων"
  },  
  "se": { 
    "previewText":"MP-bokningsreferens: {{supplierReservationReference}}, RC-bokningsreferens: {{rentalcarsReservationReference}}","logoText":"Marketplace av Rentalcars.com","salutationText":"Hej {{salutationCurrentUser}}","titleText":"Reservation ändrad","subtitleText":" av en Rentalcars.com-kund","introductionText1":"Du behöver notera detta/uppdatera ditt system, särskilt om tillval lagts till.","introductionText2":"Provisionsfakturan är från oss till dig när det gäller provisionen som relaterar till din betalningsförfrågan.","buttonTitle":"Visa ändringar","buttonText":"Visa ändringar","rdTitle":"Reservationsdetaljer","rdMPRef":"MP-bokningsreferens:","rdRCRef":"RC-bokningsreferens:","rdPickDate":"Upphämtningsdatum:","rdPickLoc":"Upphämtningsplats:","rdDropDate":"Avlämningsdatum:","rdDropLoc":"Avlämningsplats:","cdTitle":"Kunddetaljer","cdName":"Kundens namn:","cdDOB":"Födelsedatum:","cdAge":"Ålder:","cdEmail":"Email:","cdPhone":"Telefon:","cdMobile":"Mobil:","cdAddress":"Adress:","cdAirline":"Flygbolag & flygnummer.:","cdPassport":"Passinformation:","cdLicence":"Körkortsinformation:","buttonTitle2":"Hantera reservationer","buttonText2":"Hantera reservationer"
  },  
  "ru": { 
    "previewText":"MP номер брони: {{supplierReservationReference}}, RC номер брони: {{rentalcarsReservationReference}}","logoText":"Marketplace Rentalcars.com","salutationText":"Здравствуйте, {{salutationCurrentUser}}","titleText":"Изменения внесены","subtitleText":"клиентом Rentalcars.com","introductionText1":"Вам нужно будет принять к сведению / обновить вашу систему, особенно если дополнительные услуги были добавлены в бронь.","introductionText2":"Счет комиссии от нас к Вам в отношении комиссии, связанной с вашим Запросом платежа.","buttonTitle":"Просмотр изменений","buttonText":"Просмотр изменений","rdTitle":"Детали бронирования","rdMPRef":"MP номер брони:","rdRCRef":"RC номер брони:","rdPickDate":"Дата получения:","rdPickLoc":"Место получения:","rdDropDate":"Дата возврата:","rdDropLoc":"Место возврата:","cdTitle":"Информация о клиенте","cdName":"Имя клиента:","cdDOB":"Дата рождения:","cdAge":"Возраст:","cdEmail":"email:","cdPhone":"Телефон:","cdMobile":"Мобильный телефон:","cdAddress":"Aдрес:","cdAirline":"Авиакомпания и номер рейса:","cdPassport":"Паспортная информация:","cdLicence":"Детали водительского удостоверения:","buttonTitle2":"Управлять бронированиями","buttonText2":"Управлять бронированиями"
  },  
  "it": { 
    "previewText":"MP Numero di riferimento: {{supplierReservationReference}}, RC Numero di riferimento: {{rentalcarsReservationReference}}","logoText":"Marketplace di Rentalcars.com","salutationText":"Ciao {{salutationCurrentUser}}","titleText":"Prenotazione modificata","subtitleText":"da un cliente di Rentalcars.com","introductionText1":"Dovrai prendere nota di/aggiornare il tuo sistema, soprattutto se i servizi extra sono stati aggiunti.","introductionText2":"La fattura con la commissione che ti inviamo riflette la commissione relativa alla tua richiesta di pagamento.","buttonTitle":"Visualizza la modifiche","buttonText":"Visualizza la modifiche","rdTitle":"Dettagli della prenotazione","rdMPRef":"MP Numero di riferimento:","rdRCRef":"RC Numero di riferimento:","rdPickDate":"Data di Ritiro:","rdPickLoc":"Località di ritiro:","rdDropDate":"Data di riconsegna","rdDropLoc":"Località di riconsegna:","cdTitle":"Dettagli cliente","cdName":"Nome del cliente:","cdDOB":"Data di nascita:","cdAge":"Età:","cdEmail":"Email:","cdPhone":"Numero di telefono:","cdMobile":"Cellulare:","cdAddress":"Indirizzo:","cdAirline":"Compagnia del aereo e numero di volo.:","cdPassport":"Informazioni sul passaporto:","cdLicence":"Informazioni sulla patente di guida:","buttonTitle2":"Gestisci prenotazioni","buttonText2":"Gestisci prenotazioni"
  },  
  "ar": { 
    "previewText":"Nº de referencia de Marketplace: {{supplierReservationReference}}, Nº de referencia de Rentalcars.com: {{rentalcarsReservationReference}}","logoText":"Marketplace de Rentalcars.com","salutationText":"Hola, {{salutationCurrentUser}}","titleText":"Reserva modificada","subtitleText":"por un cliente de Rentalcars.com","introductionText1":"Deberá apuntar / actualizar su sistema, especialmente si hay extras añadidos.","introductionText2":"La factura de la comisión refleja la comisión relativa a su solicitud de pago.","buttonTitle":"Ver Cambios","buttonText":"Ver Cambios","rdTitle":"Datos de la reserva","rdMPRef":"Nº de referencia de Marketplace:","rdRCRef":"Nº de referencia de Rentalcars.com:","rdPickDate":"Fecha de recogida:","rdPickLoc":"Lugar de recogida:","rdDropDate":"Fecha de devolución:","rdDropLoc":"Oficina de devolución:","cdTitle":"Datos del cliente","cdName":"Nombre del cliente:","cdDOB":"Fecha de nacimiento:","cdAge":"Edad:","cdEmail":"Email:","cdPhone":"Teléfono:","cdMobile":"Móvil:","cdAddress":"Dirección:","cdAirline":"Aerolínea y número de vuelo:","cdPassport":"Datos del pasaporte:","cdLicence":"Datos del carnet de conducir:","buttonTitle2":"Gestionar reservas","buttonText2":"Gestionar reservas"
  },  
  "br": { 
    "previewText":"Número de referência MP: {{supplierReservationReference}}, Número de referência RC: {{rentalcarsReservationReference}}","logoText":"Marketplace pela Rentalcars.com","salutationText":"Olá {{salutationCurrentUser}}","titleText":"Reserva alterada","subtitleText":"por um cliente da Rentalcars.com","introductionText1":"Você precisará anotar / atualizar seu sistema, especialmente se algum extra foi adicionado.","introductionText2":"A fatura da Comissão emitida por nós para você em relação à comissão relacionada à sua solicitação de pagamento.","buttonTitle":"Ver alterações","buttonText":"Ver alterações","rdTitle":"Detalhes da reserva","rdMPRef":"Número de referência MP:","rdRCRef":"Número de referência RC:","rdPickDate":"Data de retirada:","rdPickLoc":"Local de Retirada:","rdDropDate":"Data de retirada:","rdDropLoc":"Local de devolução:","cdTitle":"Dados do cliente","cdName":"Nome do cliente:","cdDOB":"Data de nascimento:","cdAge":"Idade:","cdEmail":"E-mail:","cdPhone":"Telefone:","cdMobile":"Celular:","cdAddress":"Endereço:","cdAirline":"Companhia aérea e nº de voo.:","cdPassport":"Informação de passaporte:","cdLicence":"Informação de carteira de habilitação:","buttonTitle2":"Consultar reservas","buttonText2":"Consultar reservas"
  },  
  "au": { 
    "previewText":"MP booking ref: {{supplierReservationReference}}, RC booking ref: {{rentalcarsReservationReference}}","logoText":"Marketplace by Rentalcars.com","salutationText":"Hi {{salutationCurrentUser}}","titleText":"Reservation amended","subtitleText":"by a Rentalcars.com customer","introductionText1":"You'll need to take note / update your system, especially if extras have been added.","introductionText2":"The Commission Invoice is from us to you in respect of the commission related to your Request for Payment.","buttonTitle":"View Amendments","buttonText":"View Amendments","rdTitle":"Reservation details","rdMPRef":"MP booking ref:","rdRCRef":"RC booking ref:","rdPickDate":"Pick up date:","rdPickLoc":"Pick up location:","rdDropDate":"Drop off date:","rdDropLoc":"Drop off location:","cdTitle":"Customer details","cdName":"Customer name: ","cdDOB":"DOB:","cdAge":"Age:","cdEmail":"Email:","cdPhone":"Phone:","cdMobile":"Mobile:","cdAddress":"Address:","cdAirline":"Airline & flight no.:","cdPassport":"Passport info","cdLicence":"Drivers license info:","buttonTitle2":"Manage Reservations","buttonText2":"Manage Reservations"
  },  
  "nz": { 
    "previewText":"MP booking ref: {{supplierReservationReference}}, RC booking ref: {{rentalcarsReservationReference}}","logoText":"Marketplace by Rentalcars.com","salutationText":"Hi {{salutationCurrentUser}}","titleText":"Reservation amended","subtitleText":"by a Rentalcars.com customer","introductionText1":"You'll need to take note / update your system, especially if extras have been added.","introductionText2":"The Commission Invoice is from us to you in respect of the commission related to your Request for Payment.","buttonTitle":"View Amendments","buttonText":"View Amendments","rdTitle":"Reservation details","rdMPRef":"MP booking ref:","rdRCRef":"RC booking ref:","rdPickDate":"Pick up date:","rdPickLoc":"Pick up location:","rdDropDate":"Drop off date:","rdDropLoc":"Drop off location:","cdTitle":"Customer details","cdName":"Customer name: ","cdDOB":"DOB:","cdAge":"Age:","cdEmail":"Email:","cdPhone":"Phone:","cdMobile":"Mobile:","cdAddress":"Address:","cdAirline":"Airline & flight no.:","cdPassport":"Passport info","cdLicence":"Drivers license info:","buttonTitle2":"Manage Reservations","buttonText2":"Manage Reservations"
  },  
  "pt": { 
    "previewText":"Referência de reserva MP:{{supplierReservationReference}}, Referência de reserva RC: {{rentalcarsReservationReference}}","logoText":"Marketplace por Rentalcars.com","salutationText":"Olá {{salutationCurrentUser}}","titleText":"Reserva alterada","subtitleText":"por um cliente Rentalcars.com","introductionText1":"Irá precisar de tomar nota ou actualizar o seu sistema, especialmente se foram adicionados mais extras.","introductionText2":"A Factura da Comissão é de nós para si relativamente à comissão do seu Pedido de Pagamento.","buttonTitle":"Ver alterações","buttonText":"Ver alterações","rdTitle":"Detalhes da reserva","rdMPRef":"Referência de reserva MP:","rdRCRef":"Referência de reserva RC:","rdPickDate":"Data de levantamento:","rdPickLoc":"Local de levantamento:","rdDropDate":"Data de devolução:","rdDropLoc":"Local de devolução:","cdTitle":"Dados dos clientes","cdName":"Nome do cliente:","cdDOB":"Data de nascimento:","cdAge":"Idade:","cdEmail":"E-mail:","cdPhone":"Telefone:","cdMobile":"Telemóvel:","cdAddress":"Endereço:","cdAirline":"Companhia aérea e voo:","cdPassport":"Informação do passaporte:","cdLicence":"Informação da carta de condução:","buttonTitle2":"Consultar reservas","buttonText2":"Consultar reservas"
  }
}