{
  "en": {
    "previewText": "Dashboard Update: Setting your Discounts",
    "logoText": "Marketplace by Rentalcars.com",
    "salutationText": "-",
    "titleText": "We're improving your dashboard",
    "subtitleText": "Set Your Discounts",
    "introductionText1": "We've made it easier for you to set your length of rental discounts. You can now access your discounts from the dashboard.",
    "introductionTitle2": "Did you know:",
    "introductionText2": "In Marketplace all pricing is based on your 1 Day Rental Price. Today you probably offer a slightly lower rate for rentals of more than one day. Many rental companies offer a <strong>\"7 Day Rate\"</strong> or a <strong>\"14 Day Rate\"</strong>. It's easy to do this in Marketplace. If you haven't done this already, you may be missing out on bookings because you're pricing high in comparison to others.",
    "introductionTitle3": "Our Recommendation:",
    "introductionText3": "To win bookings of less than 7 days, create additional price points. <strong>2, 3 and 4 day rentals</strong> are very common (away from airports).  We suggest you set Length of Rental Discounts for:",
    "introductionText4": "It's easy to do this in Marketplace. Try it for yourself.",
    "buttonTitle": "Set your discounts now",
    "buttonText": "Set your discounts now",
    "bpoint1": "2-3 days ",
    "bpoint2": "4-6 days ",
    "bpoint3": "7 days ",
    "bpoint4": "8-14 days",
    "urchin": "?utm_source=newsletter&utm_medium=email&utm_campaign=dashboard_discounts_email"
  },
  "de": {
    "previewText": "International laws and regulations have recently changed.",
    "logoText": "Marketplace by Rentalcars.com",
    "salutationText": "-",
    "titleText": "International laws and regulations have recently changed.",
    "subtitleText": "We now require our partners to complete  re-screening and re-verification .",
    "introductionText1": "International laws and regulations require us to have procedures in place to detect and prevent us from working with sanctioned parties.  As part of our commitment to fulfilling our obligations, we are implementing an enhanced re-screening and re-verification process across our business.",
    "introductionText2": "You will be presented with a link to our screening and verification information form which you should complete within <strong>28 days</strong>.",
    "introductionText3": "This will allow us to continue working together.  Before starting the form, please read the |FAQ| document which details what information you will need to provide. ",
    "introductionText4": "Failure to complete will result in you being unable to receive future bookings.",
    "buttonTitle": "Complete Sanction Screening",
    "buttonText": "Complete Sanction Screening",
    "urchin": "?utm_source=newsletter&utm_medium=email&utm_campaign=securtityscreening_email"
  },
  "fr": {
    "previewText": "International laws and regulations have recently changed.",
    "logoText": "Marketplace by Rentalcars.com",
    "salutationText": "-",
    "titleText": "International laws and regulations have recently changed.",
    "subtitleText": "We now require our partners to complete  re-screening and re-verification .",
    "introductionText1": "International laws and regulations require us to have procedures in place to detect and prevent us from working with sanctioned parties.  As part of our commitment to fulfilling our obligations, we are implementing an enhanced re-screening and re-verification process across our business.",
    "introductionText2": "You will be presented with a link to our screening and verification information form which you should complete within <strong>28 days</strong>.",
    "introductionText3": "This will allow us to continue working together.  Before starting the form, please read the |FAQ| document which details what information you will need to provide. ",
    "introductionText4": "Failure to complete will result in you being unable to receive future bookings.",
    "buttonTitle": "Complete Sanction Screening",
    "buttonText": "Complete Sanction Screening",
    "urchin": "?utm_source=newsletter&utm_medium=email&utm_campaign=securtityscreening_email"
  },
  "es": {
    "previewText": "International laws and regulations have recently changed.",
    "logoText": "Marketplace by Rentalcars.com",
    "salutationText": "-",
    "titleText": "International laws and regulations have recently changed.",
    "subtitleText": "We now require our partners to complete  re-screening and re-verification .",
    "introductionText1": "International laws and regulations require us to have procedures in place to detect and prevent us from working with sanctioned parties.  As part of our commitment to fulfilling our obligations, we are implementing an enhanced re-screening and re-verification process across our business.",
    "introductionText2": "You will be presented with a link to our screening and verification information form which you should complete within <strong>28 days</strong>.",
    "introductionText3": "This will allow us to continue working together.  Before starting the form, please read the |FAQ| document which details what information you will need to provide. ",
    "introductionText4": "Failure to complete will result in you being unable to receive future bookings.",
    "buttonTitle": "Complete Sanction Screening",
    "buttonText": "Complete Sanction Screening",
    "urchin": "?utm_source=newsletter&utm_medium=email&utm_campaign=securtityscreening_email"
  },
  "nl": {
    "previewText": "International laws and regulations have recently changed.",
    "logoText": "Marketplace by Rentalcars.com",
    "salutationText": "-",
    "titleText": "International laws and regulations have recently changed.",
    "subtitleText": "We now require our partners to complete  re-screening and re-verification .",
    "introductionText1": "International laws and regulations require us to have procedures in place to detect and prevent us from working with sanctioned parties.  As part of our commitment to fulfilling our obligations, we are implementing an enhanced re-screening and re-verification process across our business.",
    "introductionText2": "You will be presented with a link to our screening and verification information form which you should complete within <strong>28 days</strong>.",
    "introductionText3": "This will allow us to continue working together.  Before starting the form, please read the |FAQ| document which details what information you will need to provide. ",
    "introductionText4": "Failure to complete will result in you being unable to receive future bookings.",
    "buttonTitle": "Complete Sanction Screening",
    "buttonText": "Complete Sanction Screening",
    "urchin": "?utm_source=newsletter&utm_medium=email&utm_campaign=securtityscreening_email"
  },
  "gr": {
    "previewText": "International laws and regulations have recently changed.",
    "logoText": "Marketplace by Rentalcars.com",
    "salutationText": "-",
    "titleText": "International laws and regulations have recently changed.",
    "subtitleText": "We now require our partners to complete  re-screening and re-verification .",
    "introductionText1": "International laws and regulations require us to have procedures in place to detect and prevent us from working with sanctioned parties.  As part of our commitment to fulfilling our obligations, we are implementing an enhanced re-screening and re-verification process across our business.",
    "introductionText2": "You will be presented with a link to our screening and verification information form which you should complete within <strong>28 days</strong>.",
    "introductionText3": "This will allow us to continue working together.  Before starting the form, please read the |FAQ| document which details what information you will need to provide. ",
    "introductionText4": "Failure to complete will result in you being unable to receive future bookings.",
    "buttonTitle": "Complete Sanction Screening",
    "buttonText": "Complete Sanction Screening",
    "urchin": "?utm_source=newsletter&utm_medium=email&utm_campaign=securtityscreening_email"
  },
  "se": {
    "previewText": "International laws and regulations have recently changed.",
    "logoText": "Marketplace by Rentalcars.com",
    "salutationText": "-",
    "titleText": "International laws and regulations have recently changed.",
    "subtitleText": "We now require our partners to complete  re-screening and re-verification .",
    "introductionText1": "International laws and regulations require us to have procedures in place to detect and prevent us from working with sanctioned parties.  As part of our commitment to fulfilling our obligations, we are implementing an enhanced re-screening and re-verification process across our business.",
    "introductionText2": "You will be presented with a link to our screening and verification information form which you should complete within <strong>28 days</strong>.",
    "introductionText3": "This will allow us to continue working together.  Before starting the form, please read the |FAQ| document which details what information you will need to provide. ",
    "introductionText4": "Failure to complete will result in you being unable to receive future bookings.",
    "buttonTitle": "Complete Sanction Screening",
    "buttonText": "Complete Sanction Screening",
    "urchin": "?utm_source=newsletter&utm_medium=email&utm_campaign=securtityscreening_email"
  },
  "ru": {
    "previewText": "International laws and regulations have recently changed.",
    "logoText": "Marketplace by Rentalcars.com",
    "salutationText": "-",
    "titleText": "International laws and regulations have recently changed.",
    "subtitleText": "We now require our partners to complete  re-screening and re-verification .",
    "introductionText1": "International laws and regulations require us to have procedures in place to detect and prevent us from working with sanctioned parties.  As part of our commitment to fulfilling our obligations, we are implementing an enhanced re-screening and re-verification process across our business.",
    "introductionText2": "You will be presented with a link to our screening and verification information form which you should complete within <strong>28 days</strong>.",
    "introductionText3": "This will allow us to continue working together.  Before starting the form, please read the |FAQ| document which details what information you will need to provide. ",
    "introductionText4": "Failure to complete will result in you being unable to receive future bookings.",
    "buttonTitle": "Complete Sanction Screening",
    "buttonText": "Complete Sanction Screening",
    "urchin": "?utm_source=newsletter&utm_medium=email&utm_campaign=securtityscreening_email"
  },
  "it": {
    "previewText": "International laws and regulations have recently changed.",
    "logoText": "Marketplace by Rentalcars.com",
    "salutationText": "-",
    "titleText": "International laws and regulations have recently changed.",
    "subtitleText": "We now require our partners to complete  re-screening and re-verification .",
    "introductionText1": "International laws and regulations require us to have procedures in place to detect and prevent us from working with sanctioned parties.  As part of our commitment to fulfilling our obligations, we are implementing an enhanced re-screening and re-verification process across our business.",
    "introductionText2": "You will be presented with a link to our screening and verification information form which you should complete within <strong>28 days</strong>.",
    "introductionText3": "This will allow us to continue working together.  Before starting the form, please read the |FAQ| document which details what information you will need to provide. ",
    "introductionText4": "Failure to complete will result in you being unable to receive future bookings.",
    "buttonTitle": "Complete Sanction Screening",
    "buttonText": "Complete Sanction Screening",
    "urchin": "?utm_source=newsletter&utm_medium=email&utm_campaign=securtityscreening_email"
  },
  "ar": {
    "previewText": "International laws and regulations have recently changed.",
    "logoText": "Marketplace by Rentalcars.com",
    "salutationText": "-",
    "titleText": "International laws and regulations have recently changed.",
    "subtitleText": "We now require our partners to complete  re-screening and re-verification .",
    "introductionText1": "International laws and regulations require us to have procedures in place to detect and prevent us from working with sanctioned parties.  As part of our commitment to fulfilling our obligations, we are implementing an enhanced re-screening and re-verification process across our business.",
    "introductionText2": "You will be presented with a link to our screening and verification information form which you should complete within <strong>28 days</strong>.",
    "introductionText3": "This will allow us to continue working together.  Before starting the form, please read the |FAQ| document which details what information you will need to provide. ",
    "introductionText4": "Failure to complete will result in you being unable to receive future bookings.",
    "buttonTitle": "Complete Sanction Screening",
    "buttonText": "Complete Sanction Screening",
    "urchin": "?utm_source=newsletter&utm_medium=email&utm_campaign=securtityscreening_email"
  },
  "br": {
    "previewText": "International laws and regulations have recently changed.",
    "logoText": "Marketplace by Rentalcars.com",
    "salutationText": "-",
    "titleText": "International laws and regulations have recently changed.",
    "subtitleText": "We now require our partners to complete  re-screening and re-verification .",
    "introductionText1": "International laws and regulations require us to have procedures in place to detect and prevent us from working with sanctioned parties.  As part of our commitment to fulfilling our obligations, we are implementing an enhanced re-screening and re-verification process across our business.",
    "introductionText2": "You will be presented with a link to our screening and verification information form which you should complete within <strong>28 days</strong>.",
    "introductionText3": "This will allow us to continue working together.  Before starting the form, please read the |FAQ| document which details what information you will need to provide. ",
    "introductionText4": "Failure to complete will result in you being unable to receive future bookings.",
    "buttonTitle": "Complete Sanction Screening",
    "buttonText": "Complete Sanction Screening",
    "urchin": "?utm_source=newsletter&utm_medium=email&utm_campaign=securtityscreening_email"
  },
  "au": {
    "previewText": "International laws and regulations have recently changed.",
    "logoText": "Marketplace by Rentalcars.com",
    "salutationText": "-",
    "titleText": "International laws and regulations have recently changed.",
    "subtitleText": "We now require our partners to complete  re-screening and re-verification .",
    "introductionText1": "International laws and regulations require us to have procedures in place to detect and prevent us from working with sanctioned parties.  As part of our commitment to fulfilling our obligations, we are implementing an enhanced re-screening and re-verification process across our business.",
    "introductionText2": "You will be presented with a link to our screening and verification information form which you should complete within <strong>28 days</strong>.",
    "introductionText3": "This will allow us to continue working together.  Before starting the form, please read the |FAQ| document which details what information you will need to provide. ",
    "introductionText4": "Failure to complete will result in you being unable to receive future bookings.",
    "buttonTitle": "Complete Sanction Screening",
    "buttonText": "Complete Sanction Screening",
    "urchin": "?utm_source=newsletter&utm_medium=email&utm_campaign=securtityscreening_email"
  },
  "nz": {
    "previewText": "International laws and regulations have recently changed.",
    "logoText": "Marketplace by Rentalcars.com",
    "salutationText": "-",
    "titleText": "International laws and regulations have recently changed.",
    "subtitleText": "We now require our partners to complete  re-screening and re-verification .",
    "introductionText1": "International laws and regulations require us to have procedures in place to detect and prevent us from working with sanctioned parties.  As part of our commitment to fulfilling our obligations, we are implementing an enhanced re-screening and re-verification process across our business.",
    "introductionText2": "You will be presented with a link to our screening and verification information form which you should complete within <strong>28 days</strong>.",
    "introductionText3": "This will allow us to continue working together.  Before starting the form, please read the |FAQ| document which details what information you will need to provide. ",
    "introductionText4": "Failure to complete will result in you being unable to receive future bookings.",
    "buttonTitle": "Complete Sanction Screening",
    "buttonText": "Complete Sanction Screening",
    "urchin": "?utm_source=newsletter&utm_medium=email&utm_campaign=securtityscreening_email"
  },
  "pt": {
    "previewText": "International laws and regulations have recently changed.",
    "logoText": "Marketplace by Rentalcars.com",
    "salutationText": "-",
    "titleText": "International laws and regulations have recently changed.",
    "subtitleText": "We now require our partners to complete  re-screening and re-verification .",
    "introductionText1": "International laws and regulations require us to have procedures in place to detect and prevent us from working with sanctioned parties.  As part of our commitment to fulfilling our obligations, we are implementing an enhanced re-screening and re-verification process across our business.",
    "introductionText2": "You will be presented with a link to our screening and verification information form which you should complete within <strong>28 days</strong>.",
    "introductionText3": "This will allow us to continue working together.  Before starting the form, please read the |FAQ| document which details what information you will need to provide. ",
    "introductionText4": "Failure to complete will result in you being unable to receive future bookings.",
    "buttonTitle": "Complete Sanction Screening",
    "buttonText": "Complete Sanction Screening",
    "urchin": "?utm_source=newsletter&utm_medium=email&utm_campaign=securtityscreening_email"
  }
}
