{       
    "en": { 
        "previewText":"Your first payment from Rentalcars.com is ready in Marketplace","salutationText":"Hi there,","titleText":"Collecting your payment is really straight forward","subtitleText":"Here's some tips on how to make the process seamless","introductionText1":"Well done! Your first booking, your first customer and first payment are all complete. ","introductionText2":"Hopefully you have found the whole process easy to follow.  ","introductionText3":"You should have received an email letting you know that a <strong>payment is ready</strong> to be taken by <strong>Virtual Credit Card</strong> (VCC).  You'll receive this email reminder every time a VCC payment is ready for you to |collect in Marketplace|.","introductionText4":"The requested amount will then transfer to your account in the same way (and same costs) as taking a <strong>normal credit card payment</strong>.","introductionText5":"You don't have to take the credit all in one go (although most Marketplace users do).","introductionText6":"Now that you know Marketplace can work for you, let's get you more bookings.  <strong>Remember - you are in control all the time</strong>. ","introductionText7":"Tips on maximising opportunities for more bookings","bpText1":"Make sure your |fleet allocation| is up to date at all times in Marketplace.","bpText2":"Keep your |prices| under constant review - for example: raise prices when you have high utilisation or the market / season can support higher prices.  Lower prices at other times.  Either way - keep experimenting.","bpText3":"Make sure you have |Length of Rental discounts| in place to complement your prices.","introductionText8":"You're up and running with Rentalcars.com. Thanks again for choosing to work with us.","urchin":"?utm_source=newsletter&utm_medium=email&utm_campaign=firstpickup_email"
    },   
    "de": { 
        "previewText":"","salutationText":"","titleText":"","subtitleText":"","introductionText1":"","introductionText2":"","introductionText3":"","bpText3":"","introductionText4":"","introductionText5":"","introductionText6":"","bpText3":"","urchin":""
    },  
    "fr": { 
        "previewText":"","salutationText":"","titleText":"","subtitleText":"","introductionText1":"","introductionText2":"","introductionText3":"","bpText3":"","introductionText4":"","introductionText5":"","introductionText6":"","bpText3":"","urchin":""
    },  
    "es": { 
        "previewText":"","salutationText":"","titleText":"","subtitleText":"","introductionText1":"","introductionText2":"","introductionText3":"","bpText3":"","introductionText4":"","introductionText5":"","introductionText6":"","bpText3":"","urchin":""
    },  
    "nl": { 
        "previewText":"","salutationText":"","titleText":"","subtitleText":"","introductionText1":"","introductionText2":"","introductionText3":"","bpText3":"","introductionText4":"","introductionText5":"","introductionText6":"","bpText3":"","urchin":""
    },  
    "gr": { 
        "previewText":"","salutationText":"","titleText":"","subtitleText":"","introductionText1":"","introductionText2":"","introductionText3":"","bpText3":"","introductionText4":"","introductionText5":"","introductionText6":"","bpText3":"","urchin":""
    },  
    "se": { 
        "previewText":"","salutationText":"","titleText":"","subtitleText":"","introductionText1":"","introductionText2":"","introductionText3":"","bpText3":"","introductionText4":"","introductionText5":"","introductionText6":"","bpText3":"","urchin":""
    },  
    "ru": { 
        "previewText":"","salutationText":"","titleText":"","subtitleText":"","introductionText1":"","introductionText2":"","introductionText3":"","bpText3":"","introductionText4":"","introductionText5":"","introductionText6":"","bpText3":"","urchin":""
    },  
    "it": { 
        "previewText":"","salutationText":"","titleText":"","subtitleText":"","introductionText1":"","introductionText2":"","introductionText3":"","bpText3":"","introductionText4":"","introductionText5":"","introductionText6":"","bpText3":"","urchin":""
    },  
    "ar": { 
        "previewText":"","salutationText":"","titleText":"","subtitleText":"","introductionText1":"","introductionText2":"","introductionText3":"","bpText3":"","introductionText4":"","introductionText5":"","introductionText6":"","bpText3":"","urchin":""
    },  
    "br": { 
        "previewText":"","salutationText":"","titleText":"","subtitleText":"","introductionText1":"","introductionText2":"","introductionText3":"","bpText3":"","introductionText4":"","introductionText5":"","introductionText6":"","bpText3":"","urchin":""
    },  
    "au": { 
        "previewText":"","salutationText":"","titleText":"","subtitleText":"","introductionText1":"","introductionText2":"","introductionText3":"","bpText3":"","introductionText4":"","introductionText5":"","introductionText6":"","bpText3":"","urchin":""
    },  
    "nz": { 
        "previewText":"","salutationText":"","titleText":"","subtitleText":"","introductionText1":"","introductionText2":"","introductionText3":"","bpText3":"","introductionText4":"","introductionText5":"","introductionText6":"","bpText3":"","urchin":""
    },  
    "pt": { 
        "previewText":"","salutationText":"","titleText":"","subtitleText":"","introductionText1":"","introductionText2":"","introductionText3":"","bpText3":"","introductionText4":"","introductionText5":"","introductionText6":"","bpText3":"","urchin":""
    }   
}