{
  "en": {
    "previewText": "Congratulations. You are live. Now boost your bookings.",
    "salutationText": "Hi there,",
    "titleText": "Increase your chances of getting bookings.",
    "subtitleText": "Make sure your Length of Rental Discounts are set up and fine tuned.",
    "introductionText1": "You've only been live for a few days but we want you to get the most from Marketplace. So here are a few hints and tips to help you convert searches into actual customers.",
    "bpText1": "It always pays to keep an eye on the competition. Do a search, just as a customer would, and see how you compare to other rental companies in the results. |Search for 2, 5 and 7 days rentals.| How do your prices stack up? Want to make any tweaks?",
    "bpLink1": "https://www.rentalcars.com/",
    "bpText2": "|Length of Rental Discounts| are a great way to stay competitive on 2 to 7 day rentals. Away from airports, 60% of customers rent for 1 to 4 days. A further 20% rent for 5-7 days. If you are competitive for rentals of 2-7 days, you will see more bookings. That's a fact.",
    "bpLink2": "https://marketplace.rentalcars.com/#/login",
    "bpText3": "Vary your prices by day of the week. If you are normally quiet at weekends, consider lowering price a little in order to increase bookings and utilisation. And raise prices a little on days when you are busier. |View and adjust your pricing|.",
    "bpLink3": "https://marketplace.rentalcars.com/#/login",
    "introductionText4": "The changes you make in Marketplace are live immediately so once you have made a change, check it with a search on |Rentalcars.com|",
    "introductionText5": "And remember: |keep your allocation| up to date at all times. If you have told us you have cars available we expect you to honour the booking a customer makes for that group of vehicles. So, if you take a booking from another source which reduces the number available to us you must update Marketplace immediately.",
    "introductionText6": "One last thing... we have set your 'lead time' to <strong>2 hours</strong>. This means a customer booking online right now could technically arrive in two hours to pick up their car.",
    "introductionText7": "Watch out for booking notifications on your Marketplace dashboard where you'll see up to the minute notifications. You'll also receive booking and cancellation emails but your Marketplace dashboard is the most reliable way to stay on top of all live bookings.",
    "introductionText8": "Great to have you on board. Thanks for helping us bring more locations to Rentalcars.com customers around the world.",
    "urchin": "?utm_source=newsletter&utm_medium=email&utm_campaign=boostbookings_email"
  },
  "de": {
    "previewText": "",
    "salutationText": "",
    "titleText": "",
    "subtitleText": "",
    "introductionText1": "",
    "bpText1": "",
    "bpLink1": "",
    "bpText2": "",
    "bpLink2": "",
    "bpText3": "",
    "bpLink3": "",
    "introductionText4": "",
    "introductionText5": "",
    "introductionText6": "",
    "introductionText7": "",
    "urchin": ""
  },
  "fr": {
    "previewText": "",
    "salutationText": "",
    "titleText": "",
    "subtitleText": "",
    "introductionText1": "",
    "bpText1": "",
    "bpLink1": "",
    "bpText2": "",
    "bpLink2": "",
    "bpText3": "",
    "bpLink3": "",
    "introductionText4": "",
    "introductionText5": "",
    "introductionText6": "",
    "introductionText7": "",
    "urchin": ""
  },
  "es": {
    "previewText": "",
    "salutationText": "",
    "titleText": "",
    "subtitleText": "",
    "introductionText1": "",
    "bpText1": "",
    "bpLink1": "",
    "bpText2": "",
    "bpLink2": "",
    "bpText3": "",
    "bpLink3": "",
    "introductionText4": "",
    "introductionText5": "",
    "introductionText6": "",
    "introductionText7": "",
    "urchin": ""
  },
  "nl": {
    "previewText": "",
    "salutationText": "",
    "titleText": "",
    "subtitleText": "",
    "introductionText1": "",
    "bpText1": "",
    "bpLink1": "",
    "bpText2": "",
    "bpLink2": "",
    "bpText3": "",
    "bpLink3": "",
    "introductionText4": "",
    "introductionText5": "",
    "introductionText6": "",
    "introductionText7": "",
    "urchin": ""
  },
  "gr": {
    "previewText": "",
    "salutationText": "",
    "titleText": "",
    "subtitleText": "",
    "introductionText1": "",
    "bpText1": "",
    "bpLink1": "",
    "bpText2": "",
    "bpLink2": "",
    "bpText3": "",
    "bpLink3": "",
    "introductionText4": "",
    "introductionText5": "",
    "introductionText6": "",
    "introductionText7": "",
    "urchin": ""
  },
  "se": {
    "previewText": "",
    "salutationText": "",
    "titleText": "",
    "subtitleText": "",
    "introductionText1": "",
    "bpText1": "",
    "bpLink1": "",
    "bpText2": "",
    "bpLink2": "",
    "bpText3": "",
    "bpLink3": "",
    "introductionText4": "",
    "introductionText5": "",
    "introductionText6": "",
    "introductionText7": "",
    "urchin": ""
  },
  "ru": {
    "previewText": "",
    "salutationText": "",
    "titleText": "",
    "subtitleText": "",
    "introductionText1": "",
    "bpText1": "",
    "bpLink1": "",
    "bpText2": "",
    "bpLink2": "",
    "bpText3": "",
    "bpLink3": "",
    "introductionText4": "",
    "introductionText5": "",
    "introductionText6": "",
    "introductionText7": "",
    "urchin": ""
  },
  "it": {
    "previewText": "",
    "salutationText": "",
    "titleText": "",
    "subtitleText": "",
    "introductionText1": "",
    "bpText1": "",
    "bpLink1": "",
    "bpText2": "",
    "bpLink2": "",
    "bpText3": "",
    "bpLink3": "",
    "introductionText4": "",
    "introductionText5": "",
    "introductionText6": "",
    "introductionText7": "",
    "urchin": ""
  },
  "ar": {
    "previewText": "",
    "salutationText": "",
    "titleText": "",
    "subtitleText": "",
    "introductionText1": "",
    "bpText1": "",
    "bpLink1": "",
    "bpText2": "",
    "bpLink2": "",
    "bpText3": "",
    "bpLink3": "",
    "introductionText4": "",
    "introductionText5": "",
    "introductionText6": "",
    "introductionText7": "",
    "urchin": ""
  },
  "br": {
    "previewText": "",
    "salutationText": "",
    "titleText": "",
    "subtitleText": "",
    "introductionText1": "",
    "bpText1": "",
    "bpLink1": "",
    "bpText2": "",
    "bpLink2": "",
    "bpText3": "",
    "bpLink3": "",
    "introductionText4": "",
    "introductionText5": "",
    "introductionText6": "",
    "introductionText7": "",
    "urchin": ""
  },
  "au": {
    "previewText": "",
    "salutationText": "",
    "titleText": "",
    "subtitleText": "",
    "introductionText1": "",
    "bpText1": "",
    "bpLink1": "",
    "bpText2": "",
    "bpLink2": "",
    "bpText3": "",
    "bpLink3": "",
    "introductionText4": "",
    "introductionText5": "",
    "introductionText6": "",
    "introductionText7": "",
    "urchin": ""
  },
  "nz": {
    "previewText": "",
    "salutationText": "",
    "titleText": "",
    "subtitleText": "",
    "introductionText1": "",
    "bpText1": "",
    "bpLink1": "",
    "bpText2": "",
    "bpLink2": "",
    "bpText3": "",
    "bpLink3": "",
    "introductionText4": "",
    "introductionText5": "",
    "introductionText6": "",
    "introductionText7": "",
    "urchin": ""
  },
  "pt": {
    "previewText": "",
    "salutationText": "",
    "titleText": "",
    "subtitleText": "",
    "introductionText1": "",
    "bpText1": "",
    "bpLink1": "",
    "bpText2": "",
    "bpLink2": "",
    "bpText3": "",
    "bpLink3": "",
    "introductionText4": "",
    "introductionText5": "",
    "introductionText6": "",
    "introductionText7": "",
    "urchin": ""
  }
}